Downloading UNPD data into R • DDSQLtools
…
res_tb <- res %>% as_tibble()
# See the code next to the name? No need to print it
# separately, `tibble` print boths things together.
res_tb %>%
  select(ends_with("Name"))
#> # A tibble: 800 × 23
#>    IndicatorName        LocName     LocTypeName RegName AreaName LocAreaTypeName
#>    <chr+lbl>            <chr+lbl>   <chr+lbl>   <dbl+l> <dbl+lb> <chr+lbl>      
#>  1 Population by … [58] Egypt [818] Country [5]      NA       NA Whole area [2] 
#>  2 Population by … [58] Egypt [818] Country [5]      NA       NA Whole area [2] 
#>  3 Population by … [58] Egypt [818] Country [5]      NA       NA Whole area [2] 
#>  4 Population by … [58] Egypt [818] Country [5]      NA       NA Whole area [2] 
#>  5 Population by … [58] Egypt [818] Country [5]      NA       NA Whole area [2] 
#>  6 Population by … [58] Egypt [818] Country [5]      NA       NA Whole area [2] 
#>  7 Population by … [58] Egypt [818] Country [5]      NA       NA Whole area [2] 
#>  8 Population by … [58] Egypt [818] Country [5]      NA       NA Whole area [2] 
#>  9 Population by … [58] Egypt [818] Country [5]      NA       NA Whole area [2] 
#> 10 Population by … [58] Egypt [818] Country [5]      NA       NA Whole area [2] 
#> # … with 790 more rows, and 17 more variables: SubGroupTypeName <chr+lbl>,
#> #   SubGroupName <chr>, IndicatorShortName <chr>, DataCatalogName <chr>,
#> #   DataCatalogShortName <chr>, DataSourceName <chr>,
#> #   DataSourceShortName <chr>, DataStatusName <chr+lbl>,
#> #   StatisticalConceptName <chr+lbl>, SexName <chr+lbl>,
#> #   DataTypeGroupName <chr+lbl>, DataTypeName <chr>,
#> #   ModelPatternFamilyName <chr+lbl>, ModelPatternName <chr+lbl>, …

If you’re interested in keeping either the codes or the names, you can do that with as_factor:

res_tb %>%
  # You can extract just the ID
  as_factor(levels = "labels") %>%
  select(ends_with("Name"))
#> # A tibble: 800 × 23
#>    IndicatorName LocName LocTypeName RegName AreaName LocAreaTypeName
#>    <fct>         <fct>   <fct>       <fct>   <fct>    <fct>          
#>  1 58            818     5           <NA>    <NA>     2              
#>  2 58            818     5           <NA>    <NA>     2              
#>  3 58            818     5           <NA>    <NA>     2              
#>  4 58            818     5           <NA>    <NA>     2              
#>  5 58            818     5           <NA>    <NA>     2              
#>  6 58            818     5           <NA>    <NA>     2              
#>  7 58            818     5           <NA>    <NA>     2              
#>  8 58            818     5           <NA>    <NA>     2              
#>  9 58            818     5           <NA>    <NA>     2              
#> 10 58            818     5           <NA>    <NA>     2              
#> # … with 790 more rows, and 17 more variables: SubGroupTypeName <fct>,
#> #   SubGroupName <chr>, IndicatorShortName <chr>, DataCatalogName <chr>,
#> #   DataCatalogShortName <chr>, DataSourceName <chr>,
#> #   DataSourceShortName <chr>, DataStatusName <fct>,
#> #   StatisticalConceptName <fct>, SexName <fct>, DataTypeGroupName <fct>,
#> #   DataTypeName <chr>, ModelPatternFamilyName <fct>, ModelPatternName <fct>,
#> #   DataReliabilityName <fct>, PeriodTypeName <fct>, PeriodGroupName <fct>

res_tb %>%
  # Or just the values
  as_factor(levels = "values") %>%
  select(ends_with("Name"))
#> # A tibble: 800 × 23
#>    IndicatorName            LocName LocTypeName RegName AreaName LocAreaTypeName
#>    <fct>                    <fct>   <fct>       <fct>   <fct>    <fct>          
#>  1 Population by age and s… Egypt   Country     <NA>    <NA>     Whole area     
#>  2 Population by age and s… Egypt   Country     <NA>    <NA>     Whole area     
#>  3 Population by age and s… Egypt   Country     <NA>    <NA>     Whole area     
#>  4 Population by age and s… Egypt   Country     <NA>    <NA>     Whole area     
#>  5 Population by age and s… Egypt   Country     <NA>    <NA>     Whole area     
#>  6 Population by age and s… Egypt   Country     <NA>    <NA>     Whole area     
#>  7 Population by age and s… Egypt   Country     <NA>    <NA>     Whole area     
#>  8 Population by age and s… Egypt   Country     <NA>    <NA>     Whole area     
#>  9 Population by age and s… Egypt   Country     <NA>    <NA>     Whole area     
#> 10 Population by age and s… Egypt   Country     <NA>    <NA>     Whole area     
#> # … with 790 more rows, and 17 more variables: SubGroupTypeName <fct>,
#> #   SubGroupName <chr>, IndicatorShortName <chr>, DataCatalogName <chr>,
#> #   DataCatalogShortName <chr>, DataSourceName <chr>,
#> #   DataSourceShortName <chr>, DataStatusName <fct>,
#> #   StatisticalConceptName <fct>, SexName <fct>, DataTypeGroupName <fct>,
#> #   DataTypeName <chr>, ModelPatternFamilyName <fct>, ModelPatternName <fct>,
#> #   DataReliabilityName <fct>, PeriodTypeName <fct>, PeriodGroupName <fct>
…
